…
## CV using modelr

### 1. `crossv_mc` to split the df into train and test for 100 times

#### **train** is a listcol and **test** is another listcol

``` r
cv_df = 
  crossv_mc(nonlin_df, 100) 

cv_df
```

    ## # A tibble: 100 × 3
    ##    train               test                .id  
    ##    <list>              <list>              <chr>
    ##  1 <resample [79 x 3]> <resample [21 x 3]> 001  
    ##  2 <resample [79 x 3]> <resample [21 x 3]> 002  
    ##  3 <resample [79 x 3]> <resample [21 x 3]> 003  
    ##  4 <resample [79 x 3]> <resample [21 x 3]> 004  
    ##  5 <resample [79 x 3]> <resample [21 x 3]> 005  
    ##  6 <resample [79 x 3]> <resample [21 x 3]> 006  
    ##  7 <resample [79 x 3]> <resample [21 x 3]> 007  
    ##  8 <resample [79 x 3]> <resample [21 x 3]> 008  
    ##  9 <resample [79 x 3]> <resample [21 x 3]> 009  
    ## 10 <resample [79 x 3]> <resample [21 x 3]> 010  
    ## # … with 90 more rows

### 2. create a tibble for `gam()` – the listcol’s item is a tibble

#### `as_tibble(listcol item)` change the list column items into tibbles

#### `map(listcol,as_tibble)` run `as_tibble` on each listcol item

``` r
# example with the first list column item
cv_df %>% pull(train) %>% .[[1]] %>% as_tibble
```

    ## # A tibble: 79 × 3
    ##       id      x       y
    ##    <int>  <dbl>   <dbl>
    ##  1     1 0.266   1.11  
    ##  2     2 0.372   0.764 
    ##  3     3 0.573   0.358 
    ##  4     4 0.908  -3.04  
    ##  5     6 0.898  -1.99  
    ##  6     7 0.945  -3.27  
    ##  7     8 0.661  -0.615 
    ##  8     9 0.629   0.0878
    ##  9    10 0.0618  0.392 
    ## 10    11 0.206   1.63  
    ## # … with 69 more rows

``` r
cv_df %>% pull(test) %>% .[[1]] %>% as_tibble
```

    ## # A tibble: 21 × 3
    ##       id      x      y
    ##    <int>  <dbl>  <dbl>
    ##  1     5 0.202   1.33 
    ##  2    12 0.177   0.836
    ##  3    19 0.380   0.982
    ##  4    22 0.212   0.710
    ##  5    28 0.382   0.932
    ##  6    31 0.482   0.498
    ##  7    37 0.794  -1.12 
    ##  8    42 0.647   0.158
    ##  9    47 0.0233 -0.148
    ## 10    56 0.0995  1.13 
    ## # … with 11 more rows

``` r
# using map() for each item in the list column
cv_df =
  cv_df %>% 
  mutate(
    train = map(train, as_tibble), # pull the list column and make it a tibble
    test = map(test, as_tibble))

cv_df # the items in the listcol are tibbles
```

    ## # A tibble: 100 × 3
    ##    train             test              .id  
    ##    <list>            <list>            <chr>
    ##  1 <tibble [79 × 3]> <tibble [21 × 3]> 001  
    ##  2 <tibble [79 × 3]> <tibble [21 × 3]> 002  
    ##  3 <tibble [79 × 3]> <tibble [21 × 3]> 003  
    ##  4 <tibble [79 × 3]> <tibble [21 × 3]> 004  
    ##  5 <tibble [79 × 3]> <tibble [21 × 3]> 005  
    ##  6 <tibble [79 × 3]> <tibble [21 × 3]> 006  
    ##  7 <tibble [79 × 3]> <tibble [21 × 3]> 007  
    ##  8 <tibble [79 × 3]> <tibble [21 × 3]> 008  
    ##  9 <tibble [79 × 3]> <tibble [21 × 3]> 009  
    ## 10 <tibble [79 × 3]> <tibble [21 × 3]> 010  
    ## # … with 90 more rows
…
cv_df
```

    ## # A tibble: 100 × 9
    ##    train    test     .id   linear_mod smooth_mod wiggl…¹ rmse_…² rmse_…³ rmse_…⁴
    ##    <list>   <list>   <chr> <list>     <list>     <list>    <dbl>   <dbl>   <dbl>
    ##  1 <tibble> <tibble> 001   <lm>       <gam>      <gam>     0.675   0.298   0.375
    ##  2 <tibble> <tibble> 002   <lm>       <gam>      <gam>     0.655   0.336   0.377
    ##  3 <tibble> <tibble> 003   <lm>       <gam>      <gam>     0.785   0.295   0.337
    ##  4 <tibble> <tibble> 004   <lm>       <gam>      <gam>     0.874   0.263   0.395
    ##  5 <tibble> <tibble> 005   <lm>       <gam>      <gam>     0.784   0.250   0.341
    ##  6 <tibble> <tibble> 006   <lm>       <gam>      <gam>     0.844   0.324   0.356
    ##  7 <tibble> <tibble> 007   <lm>       <gam>      <gam>     0.791   0.274   0.349
    ##  8 <tibble> <tibble> 008   <lm>       <gam>      <gam>     0.758   0.310   0.468
    ##  9 <tibble> <tibble> 009   <lm>       <gam>      <gam>     0.621   0.287   0.409
    ## 10 <tibble> <tibble> 010   <lm>       <gam>      <gam>     0.839   0.338   0.396
    ## # … with 90 more rows, and abbreviated variable names ¹​wiggly_mod,
    ## #   ²​rmse_linear, ³​rmse_smooth, ⁴​rmse_wiggly
…
