…
nyc_airbnb = 
  nyc_airbnb %>% 
  mutate(stars = review_scores_location / 2) %>% 
  rename(
    borough = neighbourhood_group,
    neighborhood = neighbourhood) %>% 
  filter(borough != "Staten Island") %>% 
  select(price, stars, borough, neighborhood, room_type)

nyc_airbnb
```

    ## # A tibble: 40,492 × 5
    ##    price stars borough neighborhood room_type      
    ##    <dbl> <dbl> <chr>   <chr>        <chr>          
    ##  1    99   5   Bronx   City Island  Private room   
    ##  2   200  NA   Bronx   City Island  Private room   
    ##  3   300  NA   Bronx   City Island  Entire home/apt
    ##  4   125   5   Bronx   City Island  Entire home/apt
    ##  5    69   5   Bronx   City Island  Private room   
    ##  6   125   5   Bronx   City Island  Entire home/apt
    ##  7    85   5   Bronx   City Island  Entire home/apt
    ##  8    39   4.5 Bronx   Allerton     Private room   
    ##  9    95   5   Bronx   Allerton     Entire home/apt
    ## 10   125   4.5 Bronx   Allerton     Entire home/apt
    ## # … with 40,482 more rows
…
The `modelr` package can be used to **add residuals** and **fitted
values** to a df.

### 1. `add_residuals(data,fit)`

#### arguments are the original data and the fitted model

#### add a column named `resid`

``` r
modelr::add_residuals(nyc_airbnb, fit)
```

    ## # A tibble: 40,492 × 6
    ##    price stars borough neighborhood room_type        resid
    ##    <dbl> <dbl> <fct>   <chr>        <fct>            <dbl>
    ##  1    99   5   Bronx   City Island  Private room      9.47
    ##  2   200  NA   Bronx   City Island  Private room     NA   
    ##  3   300  NA   Bronx   City Island  Entire home/apt  NA   
    ##  4   125   5   Bronx   City Island  Entire home/apt  35.5 
    ##  5    69   5   Bronx   City Island  Private room    -20.5 
    ##  6   125   5   Bronx   City Island  Entire home/apt  35.5 
    ##  7    85   5   Bronx   City Island  Entire home/apt  -4.53
    ##  8    39   4.5 Bronx   Allerton     Private room    -34.5 
    ##  9    95   5   Bronx   Allerton     Entire home/apt   5.47
    ## 10   125   4.5 Bronx   Allerton     Entire home/apt  51.5 
    ## # … with 40,482 more rows

 
### 2. `add_predictions(data,fit)`

#### arguments are the original data and the fitted model

#### add a column named `pred`

``` r
modelr::add_predictions(nyc_airbnb, fit)
```

    ## # A tibble: 40,492 × 6
    ##    price stars borough neighborhood room_type        pred
    ##    <dbl> <dbl> <fct>   <chr>        <fct>           <dbl>
    ##  1    99   5   Bronx   City Island  Private room     89.5
    ##  2   200  NA   Bronx   City Island  Private room     NA  
    ##  3   300  NA   Bronx   City Island  Entire home/apt  NA  
    ##  4   125   5   Bronx   City Island  Entire home/apt  89.5
    ##  5    69   5   Bronx   City Island  Private room     89.5
    ##  6   125   5   Bronx   City Island  Entire home/apt  89.5
    ##  7    85   5   Bronx   City Island  Entire home/apt  89.5
    ##  8    39   4.5 Bronx   Allerton     Private room     73.5
    ##  9    95   5   Bronx   Allerton     Entire home/apt  89.5
    ## 10   125   4.5 Bronx   Allerton     Entire home/apt  73.5
    ## # … with 40,482 more rows
…
manhattan_nest_lm_res =
  manhattan_airbnb %>% 
  nest(data = -neighborhood) %>% 
  mutate(
    models = map(data, ~lm(price ~ stars + room_type, data = .x)),
    results = map(models, broom::tidy)) %>% 
  select(-data, -models) %>% 
  unnest(results)

manhattan_nest_lm_res 
```

    ## # A tibble: 123 × 6
    ##    neighborhood      term                  estimate std.error statistic  p.value
    ##    <chr>             <chr>                    <dbl>     <dbl>     <dbl>    <dbl>
    ##  1 Battery Park City (Intercept)             -119.      366.     -0.324 7.48e- 1
    ##  2 Battery Park City stars                     74.0      74.2     0.997 3.27e- 1
    ##  3 Battery Park City room_typePrivate room   -126.       27.6    -4.56  8.11e- 5
    ##  4 Battery Park City room_typeShared room    -160.       56.3    -2.84  7.96e- 3
    ##  5 Chinatown         (Intercept)              337.       60.4     5.59  5.66e- 8
    ##  6 Chinatown         stars                    -27.8      13.0    -2.14  3.34e- 2
    ##  7 Chinatown         room_typePrivate room   -109.       11.5    -9.52  1.03e-18
    ##  8 Chinatown         room_typeShared room    -143.       93.2    -1.54  1.25e- 1
    ##  9 Chelsea           (Intercept)              477.      135.      3.53  4.38e- 4
    ## 10 Chelsea           stars                    -44.5      27.3    -1.63  1.04e- 1
    ## # … with 113 more rows
…
 
### 4. `modelr::add_predictions(fitted model)` add prediction to the original df

#### the prediction is the log odds ratio

### 5. inverse logit – calculate the prob from the log odds ratio (pred)

``` r
baltimore_df %>% 
  modelr::add_predictions(fit_logistic) %>% 
  mutate(fitted_prob = boot::inv.logit(pred))
```

    ## # A tibble: 2,827 × 6
    ##    resolved victim_age victim_race victim_sex    pred fitted_prob
    ##       <dbl>      <dbl> <fct>       <chr>        <dbl>       <dbl>
    ##  1        0         17 Black       Male       -0.654        0.342
    ##  2        0         26 Black       Male       -0.720        0.327
    ##  3        0         21 Black       Male       -0.683        0.335
    ##  4        1         61 White       Male       -0.131        0.467
    ##  5        1         46 Black       Male       -0.864        0.296
    ##  6        1         27 Black       Male       -0.727        0.326
    ##  7        1         21 Black       Male       -0.683        0.335
    ##  8        1         16 Black       Male       -0.647        0.344
    ##  9        1         21 Black       Male       -0.683        0.335
    ## 10        1         44 Black       Female      0.0297       0.507
    ## # … with 2,817 more rows
